(footprint "padtest"
	(version 20241229)
	(generator "kicad-footprint-generator")
	(layer "F.Cu")
	(attr smd)
	(pad "42" smd rect
		(at 0 0)
		(size 1 1)
		(layers "F.Cu")
		(zone_connect 2)
	)
	(embedded_fonts no)
)
